Assignment 2
…
## Rows: 90 Columns: 7

## -- Column specification --------------------------------------------------------
## Delimiter: "\t"
## chr (3): Site, Habitat, Island
## dbl (3): Number, Borrelia_prevalence, Temp

## 
## i Use `spec()` to retrieve the full column specification for this data.
## i Specify the column types or set `show_col_types = FALSE` to quiet this message.

## # A tibble: 90 x 7
##    Number Site  Habitat Island Borrelia_prevalence    PH  Temp
##     <dbl> <fct> <fct>   <fct>                <dbl> <dbl> <dbl>
##  1      1 ASK01 Meadow  ASK                     27   736    21
##  2      2 ASK02 Meadow  ASK                     71    78    20
##  3      3 ASK03 Meadow  ASK                     66   799    21
##  4      4 ASK04 Meadow  ASK                     39    61    20
##  5      5 ASK05 Meadow  ASK                     32   729    17
##  6      6 ASK06 Meadow  ASK                     41   729    21
##  7      7 ASK07 Meadow  ASK                     35    63    17
##  8      8 ASK08 Meadow  ASK                     42   691    18
##  9      9 ASK09 Meadow  ASK                     31   774    21
## 10     10 ASK10 Meadow  ASK                     31   781    19
## # ... with 80 more rows
…
