Exercise 2
…
Part 1: Differences in butterfat content between different cow breeds and age groups.

Step 1: Import data

# install.packages('faraway')
library('faraway')

## Warning: package 'faraway' was built under R version 4.0.5

data('butterfat')
butterfat %<>% tibble()     
butterfat

## # A tibble: 100 x 3
##    Butterfat Breed    Age   
##        <dbl> <fct>    <fct> 
##  1      3.74 Ayrshire Mature
##  2      4.01 Ayrshire 2year 
##  3      3.77 Ayrshire Mature
##  4      3.78 Ayrshire 2year 
##  5      4.1  Ayrshire Mature
##  6      4.06 Ayrshire 2year 
##  7      4.27 Ayrshire Mature
##  8      3.94 Ayrshire 2year 
##  9      4.11 Ayrshire Mature
## 10      4.25 Ayrshire 2year 
## # ... with 90 more rows
…
detach(butterfat)

Part 2. Differences in salary, level of education (degree) and gender

GENDER <- read.table("../p02_inputs/GENDER_EDU.txt", 
  header=TRUE, sep="\t", na.strings="NA", dec=",", strip.white=TRUE) %>% tibble() %>% 
  mutate(Degree = as.factor(Degree)
         , GENDER = as.factor(GENDER))
GENDER

## # A tibble: 119 x 3
##    Income Degree GENDER
##     <int> <fct>  <fct> 
##  1     70 HS     F     
##  2     70 HS     M     
##  3     70 HS     F     
##  4     70 HS     F     
##  5     71 HS     F     
##  6     71 HS     F     
##  7     71 HS     F     
##  8     71 HS     F     
##  9     72 HS     F     
## 10     72 HS     F     
## # ... with 109 more rows
…
