Exercise 1
…
Part 3: Chlorophyll- concentrations (g/l) in the different basins of the Baltic Sea

(chlor <- readr::read_tsv('../p02_inputs/Chla.txt') %>% tibble())

## Rows: 13356 Columns: 4

## -- Column specification --------------------------------------------------------
## Delimiter: "\t"
## chr (4): Parameter, Chlorophyll_a, Basin, LARGE_basin

## 
## i Use `spec()` to retrieve the full column specification for this data.
## i Specify the column types or set `show_col_types = FALSE` to quiet this message.

## # A tibble: 13,356 x 4
##    Parameter     Chlorophyll_a Basin  LARGE_basin
##    <chr>         <chr>         <chr>  <chr>      
##  1 Chlorophyll_a 0,20          Arkona Arkona     
##  2 Chlorophyll_a 0,25          Arkona Arkona     
##  3 Chlorophyll_a 0,30          Arkona Arkona     
##  4 Chlorophyll_a 0,30          Arkona Arkona     
##  5 Chlorophyll_a 0,30          Arkona Arkona     
##  6 Chlorophyll_a 0,30          Arkona Arkona     
##  7 Chlorophyll_a 0,30          Arkona Arkona     
##  8 Chlorophyll_a 0,30          Arkona Arkona     
##  9 Chlorophyll_a 0,30          Arkona Arkona     
## 10 Chlorophyll_a 0,30          Arkona Arkona     
## # ... with 13,346 more rows
…
